[gd_scene load_steps=4 format=2]

[ext_resource path="res://Scripts/Score.gd" type="Script" id=1]
[ext_resource path="res://Assets/Fonts/pixelated/SFPixelate.ttf" type="DynamicFontData" id=2]

[sub_resource type="DynamicFont" id=1]
size = 20
font_data = ExtResource( 2 )

[node name="Score" type="CanvasLayer"]

[node name="Score" type="Label" parent="."]
margin_right = 100.0
margin_bottom = 18.0
custom_fonts/font = SubResource( 1 )
text = "Score: 0"
align = 1
script = ExtResource( 1 )
__meta__ = {
"_edit_use_anchors_": false
}
